<svg xmlns="http://www.w3.org/2000/svg" width="1126" height="722" viewBox="0 0 1126 722">
    <g fill="none" fill-rule="evenodd">
        <g transform="translate(788.349 107.73)">
            <circle cx="53" cy="53" r="53" fill="#F2F2F2"/>
            <circle cx="53" cy="11" r="3" fill="#000" fill-opacity=".1"/>
            <circle cx="11" cy="53" r="3" fill="#000" fill-opacity=".1"/>
            <circle cx="95" cy="53" r="3" fill="#000" fill-opacity=".1"/>
            <circle cx="53" cy="95" r="3" fill="#000" fill-opacity=".1"/>
            <path fill="#AFB9C5" d="M53 17l2 35h-4zM70.698 70.698L52.314 55.142l2.828-2.828z"/>
            <circle cx="53" cy="53" r="4" fill="#C5CFD6"/>
        </g>
        <g opacity=".346">
            <path fill="#F2F2F2" d="M775.6 484.966C765.086 395.226 200.96 222.02 96.232 307.02c-104.728 85-4.045 244.52 215.426 285.37 219.471 40.849 474.456-17.685 463.942-107.424z"/>
            <path fill="#DDE3E9" d="M298.847 543.274c9.71-76.236 530.662-223.382 627.375-151.172 96.713 72.21 72.233 224.096-130.442 258.799-202.675 34.703-506.642-31.39-496.933-107.627z"/>
        </g>
        <g transform="translate(6 187.262)">
            <ellipse cx="49.5" cy="34.5" fill="#F2F2F2" rx="42.5" ry="22.5"/>
            <path fill="#DDE3E9" d="M99 50C99 22.386 76.838 0 49.5 0S0 22.386 0 50"/>
        </g>
        <path fill="#DDE3E9" d="M53 0h5v194.588h-5z"/>
        <g opacity=".7">
            <g transform="translate(124 139.188)">
                <ellipse cx="37" cy="27.842" fill="#F2F2F2" rx="31.768" ry="18.158"/>
                <path fill="#DDE3E9" d="M74 40.35C74 18.067 57.435 0 37 0S0 18.066 0 40.35"/>
            </g>
            <path fill="#DDE3E9" d="M159 0h5v162.188h-5z"/>
        </g>
        <g transform="translate(889 234)">
            <path stroke="#CBCBCB" stroke-width="8" d="M60 40.889l38-25.832a8 8 0 0 1 8.995 0l93.355 63.461a16 16 0 0 1 7.005 13.232v389.896"/>
            <rect width="59" height="7" x="177.355" y="480.646" fill="#AFB9C5" rx="3"/>
            <g transform="rotate(45 23.188 59.395)">
                <path fill="#C5CFD6" d="M33.03 1.384c18.226 0 33 14.775 33 33v28h-66v-28c0-18.225 14.775-33 33-33z"/>
                <ellipse cx="33.209" cy="61.445" fill="#F2F2F2" rx="33" ry="6.5"/>
            </g>
        </g>
        <path fill="#DDE3E9" d="M47.258 484.173c2.865-.35 5.922-.226 8.586.904 5.665 2.405 7.275 9.097 7.197 14.537-.084 5.854-1.327 12.249 3.124 16.966 2.046 2.168 4.591 3.828 6.6 6.037 2.147 2.36 3.832 5.06 5.079 7.96 2.29 5.326 3.414 11.59 1.32 17.177-1.844 4.92-6.483 9.36-5.48 14.954 1.045 5.835 6.928 10.296 10.606 14.643 4.163 4.918 7.996 11.205 8.626 17.655.603 6.182-2.088 12.434-6.217 17.107-8.251 9.338-20.654 13.915-33.16 13.887-5.309-.012-11.32-.252-15.902-3.105-1.417-.882-2.164-1.872-3.006-3.247-.754-1.234-1.751-2.036-2.906-2.909-2.535-1.917-4.366-4.5-5.535-7.392-4.538-11.233-.91-25.13 5.441-35.104 1.505-2.363 2.738-4.638 2.006-7.454-.763-2.94-2.638-5.593-4.297-8.12-1.639-2.499-3.51-4.882-4.791-7.582-1.342-2.83-1.72-5.793-1.483-8.89.446-5.816 2.957-11.184 6.512-15.861 3.424-4.506 7.444-8.818 7.453-14.721.01-6.258-4.173-11.824-2.391-18.186.738-2.634 2.22-5.337 4.609-6.916 2.29-1.515 5.315-2.01 8.009-2.34z"/>
        <path fill="#C5CFD6" d="M45.386 494.176c.054-.84 1.05-1.344 1.836-1.125 1.032.29 1.013 1.254.985 2.114-.083 2.643.3 5.212.935 7.777 1.32 5.332 3.76 10.244 5.694 15.366 1.932 5.117 2.839 10.401 1.706 15.816-1.069 5.106-2.747 10.08-3.84 15.191-.964 4.506-1.99 9.258-.522 13.752 1.412 4.326 4.534 7.849 6.782 11.758 4.655 8.093 6.72 17.071 6.995 26.31.128 4.29.013 8.62-.982 12.828-.573 2.423-1.343 5.697-3.42 7.37-.956.772-2.594 1.038-3.4-.104-.756-1.071-.093-2.73.148-3.872 1.04-4.944 1.249-9.996 1-15.015-.241-4.862-.816-9.716-2.346-14.36-1.42-4.31-3.578-8.18-6.117-11.95-2.588-3.841-5.278-7.69-6.347-12.243-1.087-4.623-.204-9.327.976-13.862 1.248-4.796 2.883-9.455 4.573-14.122 1.647-4.547 2.23-8.85 1.321-13.609-1.796-9.402-6.603-18.228-5.977-28.02z"/>
        <path fill="#DDE3E9" d="M122.892 495.582c3.545 1.077 7.066 2.813 9.593 5.536 5.373 5.791 3.724 14.543.758 20.935-3.193 6.88-8.03 13.796-5.303 21.69 1.253 3.63 3.361 6.916 4.55 10.573 1.27 3.908 1.82 7.978 1.75 12.056-.13 7.49-2.122 15.483-7.532 21.001-4.763 4.859-12.55 7.697-14.331 14.833-1.859 7.445 2.684 15.782 4.7 22.835 2.283 7.983 3.456 17.412.785 25.368-2.56 7.625-9.02 13.619-16.334 16.997-14.613 6.75-31.58 5.711-46.232-.828-6.221-2.777-13.145-6.187-17.011-11.945-1.195-1.78-1.549-3.339-1.809-5.403-.233-1.852-.979-3.32-1.871-4.952-1.961-3.586-2.743-7.594-2.585-11.622.614-15.645 12.214-30.192 24.936-38.684 3.015-2.012 5.662-4.06 6.293-7.772.66-3.875-.138-7.987-.748-11.839-.602-3.807-1.537-7.598-1.612-11.459-.078-4.044 1.044-7.745 2.96-11.283 3.596-6.647 9.378-11.69 16.02-15.372 6.398-3.547 13.393-6.555 16.524-13.532 3.319-7.395 1.354-16.154 6.807-22.75 2.258-2.732 5.425-5.158 9.062-5.783 3.487-.6 7.296.388 10.63 1.4z"/>
        <path fill="#C5CFD6" d="M115.651 507.81c.503-.966 1.933-1.04 2.736-.37 1.056.884.527 2.016.045 3.02-1.482 3.087-2.38 6.33-2.98 9.7-1.248 7.006-.967 14.102-1.389 21.181-.421 7.073-2.128 13.806-6.29 19.624-3.923 5.487-8.49 10.497-12.446 15.978-3.486 4.83-7.174 9.92-7.811 16.011-.615 5.863 1.19 11.672 1.772 17.48 1.204 12.023-1.084 23.737-5.6 34.823-2.097 5.148-4.5 10.215-7.867 14.676-1.939 2.57-4.554 6.044-7.858 6.936-1.523.412-3.578-.13-3.921-1.905-.324-1.666 1.32-3.282 2.2-4.509 3.805-5.309 6.696-11.182 9.033-17.257 2.265-5.884 4.135-11.933 4.778-18.235.596-5.847.1-11.562-.895-17.357-1.014-5.905-2.143-11.875-1.01-17.825 1.152-6.045 4.647-11.153 8.402-15.905 3.971-5.026 8.323-9.686 12.743-14.327 4.307-4.522 7.243-9.31 8.673-15.423 2.824-12.077 1.825-25.048 7.685-36.315z"/>
        <g>
            <path fill="#C5CFD6" d="M13.306 540c5.894 0 11.076 3.124 14.647 7.558 4.18 5.19 5.024 11.528 6.722 17.714.844 3.078 2.297 6.134 4.842 8.226 2.316 1.902 5.255 2.282 8.027 3.212 5.538 1.857 10.01 6.33 11.777 11.79 2.155 6.658-.128 13.373.265 20.122.361 6.197 6.472 10.063 11.388 13.034 4.847 2.93 9.215 5.672 10.675 11.379 1.548 6.053 2.067 12.809-.077 18.788-3.57 9.956-14.02 14.34-24.116 15.02-9.163.616-20.684-.352-27.565-7.003-4.118-3.98-5.61-9.547-5.424-15.085.115-3.444.797-6.856 1.679-10.184.625-2.358 1.47-4.707 1.71-7.144.64-6.485-5.353-7.73-10.455-9.51-6.483-2.263-11.021-6.537-14.177-12.492-2.939-5.544-4.172-11.767-2.41-17.87.9-3.118 2.532-5.945 4.745-8.35.974-1.059 2.348-1.942 3.227-3.054.82-1.039.642-2.385.36-3.601-1.309-5.62-5.384-10.272-6.841-15.882-1.316-5.063-.538-11.364 4.09-14.63 2-1.411 4.467-2.022 6.911-2.038z"/>
            <path fill="#AFB9C5" d="M21.338 554.641c6.247 6.655 7.945 15.684 8.443 24.435.28 4.907-.01 10.083 1.43 14.843 1.234 4.074 4.126 7.188 7.107 10.132 6 5.924 12.693 11.948 14.448 20.523 1.03 5.032.335 10.23 1.758 15.206 1.293 4.524 3.572 8.968 6.343 12.788 2.23 3.077 5.137 5.432 7.576 8.3.744.875 1.81 2.163 1.503 3.399-.36 1.447-2.203 1.905-3.51 1.678-3.05-.53-5.617-3.442-7.61-5.559-2.916-3.095-5.394-6.424-7.407-10.159-2.236-4.147-4.036-8.548-4.805-13.201-.798-4.827-.4-9.858-2.223-14.49-3.067-7.796-10.505-12.396-15.883-18.472-6.7-7.57-5.701-16.992-5.015-26.305.377-5.118.752-10.897-1.834-15.57-.987-1.783-3.188-3.446-3.612-5.474-.39-1.857 1.733-3.734 3.29-2.074z"/>
        </g>
        <path fill="#89C5CC" d="M28 664c0 38.058 6.211 58 39 58s39-19.942 39-58H28z"/>
        <g>
            <g transform="translate(184 465)">
                <rect width="38" height="9" x="21" y="144" fill="#AFB9C5" rx="2"/>
                <path fill="#DDE3E9" d="M31 115c4.293-13.915 6.699-28.581 7.217-44h4.566c.518 15.419 2.924 30.085 7.217 44h6.5c8.56 0 15.5 6.94 15.5 15.5 0 8.56-6.94 15.5-15.5 15.5h-33C14.94 146 8 139.06 8 130.5c0-8.56 6.94-15.5 15.5-15.5H31z"/>
                <path fill="#C5CFD6" d="M4.622 1.679A353.495 353.495 0 0 1 39 0c11.46 0 22.919.56 34.378 1.679L78 81.133C65 82.378 52 83 39 83s-26-.622-39-1.867L4.622 1.68z"/>
            </g>
            <path fill="#F2F2F2" d="M182 618h104v104h-21v-82h-83v82h-21V618h21z"/>
        </g>
        <g>
            <path fill="#C1DEE2" d="M943.38 440.208c8.834 20.99 23.85 35.573 31.802 57.397 4.716 12.942 6.682 27.015 6.8 41.427.066 7.828-.07 15.662-.107 23.49-.036 7.634-.243 15.22-.891 22.805-.652 7.625-1.38 15.16-1.702 22.832-.25 5.978-.365 12.932-2.391 18.385-1.612 4.337-5.708 4.972-6.794-.288-.604-2.923-.528-6.188-.461-9.193.085-3.855.31-7.704.424-11.559.46-15.468-.137-30.938.175-46.412.304-15.119 2.247-30.22.097-45.239-1.776-12.401-6.286-23.05-11.47-33.26-4.988-9.822-10.417-19.406-13.787-30.579-.968-3.208-1.716-6.533-2.075-9.984.157-.073.284-.014.38.178z"/>
            <path fill="#89C5CC" d="M940.974 481.617c1.749 1.263 2.726 3.11 3.908 4.934 1.47 2.266 3.199 4.312 4.669 6.58 3.064 4.729 5.757 9.748 8.55 14.668 5.305 9.338 9.332 19.292 11.326 30.096 2.068 11.197 2.625 22.753 3.492 34.117.92 12.044 1.846 24.176 1.968 36.267.055 5.417.348 11.167-.303 16.546-.405 3.348-1.916 6.202-5.323 6.175-7.236-.058-10.634-8.073-12.053-14.646-2.09-9.68-2.506-19.961-2.175-29.86.4-11.936 2.47-23.692 3.367-35.582.95-12.587.414-24.952-3.914-36.803-2.186-5.99-4.723-11.835-7.002-17.784-.97-2.533-1.765-5.135-3.075-7.494-1.458-2.623-3.267-5.005-4.409-7.831l.974.617z"/>
            <path fill="#C1DEE2" d="M1024.334 456.518L1025 456c-.64 2.693-1.793 4.88-2.676 7.341-.793 2.213-1.195 4.717-1.73 7.136-1.254 5.68-2.704 11.234-3.888 16.963-2.346 11.337-1.902 23.55-.364 36.128 1.453 11.882 3.75 23.745 4.845 35.624.908 9.851 1.298 20.01.432 29.409-.588 6.383-2.516 14.005-7.77 13.36-2.475-.302-3.765-3.28-4.285-6.64-.835-5.4-1.01-11.075-1.335-16.443-.727-11.982-.871-23.927-1.015-35.786-.136-11.188-.51-22.598.238-33.505.721-10.524 2.976-20.007 6.201-28.757 1.698-4.61 3.317-9.328 5.225-13.722.915-2.107 2.033-3.97 2.949-6.075.736-1.694 1.321-3.432 2.507-4.515zM943.209 516.302c.957-1.607 3.063 3.691 3.384 4.358a202.14 202.14 0 0 0-.41-.993c1.9 3.158 3.638 6.446 4.718 10.067 1.07 3.585 1.987 7.243 2.99 10.853 1.883 6.774 4.31 13.356 6.016 20.19 1.662 6.661 2.08 13.209 1.678 20.098-.418 7.16-.674 14.43-.186 21.587.233 3.418 1.344 6.602 2.105 9.892.762 3.294 1.362 6.632 2.263 9.885.207-.424.233.993.233 1.1a6.83 6.83 0 0 1-.38 2.265c-.672 1.982-1.93 3.665-3.842 4.212-3.456.987-6.666-2.157-7.78-5.477-1.6-4.764-2.48-10.028-3.243-15.035-.698-4.591-.864-9.21-.656-13.864.409-9.18 2.07-18.238 2.52-27.414.488-9.99-1.491-19.377-3.148-29.101-.798-4.686-1.561-9.327-3.115-13.791-.629-1.808-1.449-3.403-2.308-5.073-.49-.95-1.479-2.643-.84-3.76z"/>
            <path fill="#69A1AC" d="M971.252 500.697c-.396 11.445-1.08 22.803-2.606 34.127-1.557 11.556-3.346 23.073-4.844 34.64-1.459 11.258-2.987 22.704-2.784 34.12.15 8.41-1.244 22.635 8.095 26.785 9.46 4.203 11.488-13.746 12.11-19.67 1.19-11.366.804-22.852.226-34.28-.593-11.73-1.583-23.4-2.81-35.085-1.362-12.981-2.431-26.02-3.29-39.038-.424-6.439-.529-12.867-.412-19.308.111-6.077-.12-12.218-2.28-17.988l-.34.246"/>
            <path fill="#89C5CC" d="M1020.083 536.955c-1.701 2.478-3.416 4.932-5.022 7.557-2.875 4.697-5.474 9.92-6.256 16.635-1.636 14.053-.324 29.232-.007 43.716.065 2.96-.31 5.83.857 8.647 1.058 2.554 3.036 4.5 4.92 4.49 4.036-.023 3.42-9.905 3.427-14.254.012-7.623-.843-15.324-.77-22.94.074-7.546.533-15.112 1.627-22.278 1.108-7.253 2.73-14.219 4.87-20.718.297-.902 2.429-7.873.415-6.671"/>
            <path fill="#69A1AC" d="M1002.262 462c-2.653 0-2.637 13.226-2.716 14.925-.289 6.13-.22 12.263-.403 18.394-.4 13.382-.89 26.88-2.9 40.107-1.082 7.12-2.336 14.21-3.686 21.276-1.353 7.087-3.17 14.165-4.06 21.342-.855 6.899-.372 13.933-.255 20.866.117 6.975.328 13.964 1.242 20.878.225 1.706.49 3.407.773 5.103.235 1.414.098 3.167.497 4.51.639 2.151 3.379 2.855 5.224 2.52 4.992-.912 8.181-7.181 9.887-11.761 2.178-5.849 3.334-12.193 4.474-18.356 1.292-6.983 2.05-14.072 2.404-21.18.723-14.449-.204-28.912-1.239-43.314-.576-8.01-1.24-15.983-2.258-23.943-1.014-7.926-2.314-15.817-3.16-23.766-.615-5.776-1.221-11.56-1.62-17.36-.095-1.382-.175-10.241-2.204-10.241"/>
            <path fill="#89C5CC" d="M998.94 558.139c-.432-13.886-6.013-74.88-7.283-91.672-.318-4.203-3.375-21.702-3.772-26.467-1.075 1.347-.984 22.31-.972 27.126.013 4.765-.578 9.45-.882 14.19-.31 4.835-7.459 67.285-8.386 71.931-1.846 9.244-3.081 18.73-4.034 28.18-.928 9.212-2.37 18.931-1.129 28.191.285 2.132.737 4.23 1.473 6.188.794 2.116 1.339 4.073 1.977 6.287 1.026 3.566 2.883 6.696 5.736 8.169 5.85 3.019 8.99-3.815 10.583-9.765 2.542-9.502 4.175-19.16 4.94-29.138.846-11.04 2.096-22.104 1.75-33.22"/>
            <g transform="translate(927 599)">
                <rect width="91" height="91" x="10" fill="#FFF" rx="2"/>
                <rect width="10" height="113" y="10" fill="#C5CFD6" rx="2"/>
                <rect width="10" height="113" x="50" y="10" fill="#C5CFD6" rx="2"/>
                <rect width="10" height="113" x="101" y="10" fill="#C5CFD6" rx="2"/>
            </g>
        </g>
    </g>
</svg>
